[
  {
    "name": "推薦",
    "list": [
      {
        "url": "https://gitlab.com/guot55/bh/-/raw/main/pg/pic/bhmb.jpg",
        "icon": "https://gitlab.com/guot55/bh/-/raw/main/pg/pic/bhmb.jpg"
      }
    ]
  },
  {
    "name": "宝盒全家桶",
    "list": [
      {
        "name": "宝盒VIP",
        "url": "https://cloud.lxweb.cn/f/MR1xHG/%E5%AE%9D%E7%9B%92VIP.apk",
        "icon": "https://gitlab.com/guot55/bh/-/raw/main/pg/bhtv.png",
        "version": "VIP版"
      },
      {
        "name": "宝盒BOX",
        "url": "https://cloud.lxweb.cn/f/68VWhw/%E6%9C%88%E5%85%89%E5%AE%9D%E7%9B%92Box.apk",
        "icon": "https://gitlab.com/guot55/bh/-/raw/main/pg/box.jpg",
        "version": "0615"
      },
      {
        "name": "宝盒PLUS",
        "url": "https://cloud.lxweb.cn/f/bKBdIp/%E6%9C%88%E5%85%89%E5%AE%9D%E7%9B%92PLUS.apk",
        "icon": "https://gitlab.com/guot55/bh/-/raw/main/pg/plus.jpg",
        "version": "0615"
      },{
        "name": "宝盒MAX",
        "url": "https://cloud.lxweb.cn/f/qmBQce/%E6%9C%88%E5%85%89%E5%AE%9D%E7%9B%92MAX.apk",
        "icon": "https://gitlab.com/guot55/bh/-/raw/main/pg/pic/max.jpg",
        "version": "0615"
      },
      {
        "name": "宝盒影视仓",
        "url": "https://cloud.lxweb.cn/f/eDPeCa/%E6%9C%88%E5%85%89%E5%BD%B1%E8%A7%86%E4%BB%93.apk",
        "icon": "https://gitlab.com/guot55/bh/-/raw/main/pg/ysc.jpg",
        "version": "5.031"
      },{
        "name": "宝盒直播3.0",
        "url": "https://cloud.lxweb.cn/f/01Lof0/%E6%9C%88%E5%85%89%E5%AE%9D%E7%9B%92%E7%9B%B4%E6%92%AD3.0.apk",
        "icon": "https://gitlab.com/guot55/bh/-/raw/main/pg/pic/ygzb.jpg",
        "version": "3.0"
      }, {
        "name": "太阳直播",
        "url": "https://chuxinya.top/f/7ZVsZ/tyzb.apk",
        "icon": "https://gitlab.com/guot55/bh/-/raw/main/pg/pic/ty.jpg",
        "version": "1.0.1"
      },{
        "name": "抖音TV版",
        "url": "https://cloud.lxweb.cn/f/VR1VSr/%E6%8A%96%E9%9F%B3%E7%9F%AD%E8%A7%86%E9%A2%919.9.2002%E7%89%88%E6%9C%AC.apk",
        "icon": "https://gitlab.com/guot55/bh/-/raw/main/pg/pic/dy.jpg",
        "version": "9.9.2"
      }
    ]
  },

  {
    "name": "其他娱乐类",
    "list": [
      {
        "name": "秒看TV（随意注册）",
        "url": "https://git.acwing.com/bh666/bh/-/raw/main/bhyy/%E7%A7%92%E7%9C%8BTV.apk",
        "icon": "https://gitlab.com/guot55/bh/-/raw/main/pg/mk.jpg",
        "version": "1.0.7"
      },{
        "name": "我的电视",
        "url": "https://cloud.lxweb.cn/f/qm7yFe/%E6%88%91%E7%9A%84%E7%94%B5%E8%A7%862.1.8.apk",
        "icon": "https://gitlab.com/guot55/bh/-/raw/main/pg/wd.jpg",
        "version": "2.1.8"
      },{
        "name": "飞沙直播",
        "url": "https://cloud.lxweb.cn/f/Y00LF6/fszb.apk",
        "icon": "https://gitlab.com/guot55/bh/-/raw/main/pg/pic/fszb.jpg",
        "version": "破解版"
      },
{
        "name": "星空直播",
        "url": "https://cloud.lxweb.cn/f/68yVcw/xkzb.apk",
        "icon": "https://gitlab.com/guot55/bh/-/raw/main/pg/pic/xkzb.jpg",
        "version": "破解去广告版"
      },
{
        "name": "纯粹直播",
        "url": "https://cloud.lxweb.cn/f/07YVU0/%E7%BA%AF%E7%B2%B9%E7%9B%B4%E6%92%AD.apk",
        "icon": "https://gitlab.com/guot55/bh/-/raw/main/pg/pic/cc.jpg",
        "version": "1.6.8"
      }, {
        "name": "梨园行戏曲",
        "url": "https://cloud.lxweb.cn/f/BY7Ys9/lyx.apk",
        "icon": "https://gitlab.com/guot55/bh/-/raw/main/pg/pic/lyx.jpg",
        "version": "登录即是VIP"
      },{
        "name": "应用管家",
        "url": "https://cloud.lxweb.cn/f/q1qGfe/%E5%BA%94%E7%94%A8%E7%AE%A1%E5%AE%B6.apk",
        "icon": "https://gitlab.com/guot55/bh/-/raw/main/pg/pic/gj.jpg",
        "version": "V1.3.4"
      },{
        "name": "当贝桌面",
        "url": "https://cloud.lxweb.cn/f/GEZNtg/dbzm.apk",
        "icon": "https://gitlab.com/guot55/bh/-/raw/main/pg/pic/dbzm.jpg",
        "version": "破解版"
      },{
        "name": "今日(邀请码15908)",
        "url": "https://git.acwing.com/bh666/bh/-/raw/main/bhyy/%E4%BB%8A%E6%97%A5%E5%BD%B1%E8%A7%86%E9%82%80%E8%AF%B7ID15908.apk",
        "icon": "https://gitlab.com/guot55/bh/-/raw/main/pg/pic/jrys.jpg",
        "version": "邮箱注册邀请码15908"
      },
      {
        "name": "KTV（K歌）",
        "url": "https://cloud.lxweb.cn/f/BkPzF9/KTV.apk",
        "icon": "https://gitlab.com/guot55/bh/-/raw/main/pg/kg.jpg",
        "version": "50版"
      }
    ]
  }
]
